^D:\src\pi3diamond\timetagger\backend\backend\backend.vcxproj
D:\src\pi3diamond\timetagger\backend\Release\backend.lib
D:\src\pi3diamond\timetagger\backend\Release\backend.lib
D:\src\pi3diamond\timetagger\backend\Release\backend.exp
D:\src\pi3diamond\timetagger\backend\Release\backend.exp
^D:\src\pi3diamond\timetagger\backend\backend\backend.vcxproj
D:\src\pi3diamond\timetagger\backend\Release\backend.lib
D:\src\pi3diamond\timetagger\backend\Release\backend.lib
D:\src\pi3diamond\timetagger\backend\Release\backend.exp
D:\src\pi3diamond\timetagger\backend\Release\backend.exp
^D:\src\pi3diamond\timetagger\backend\backend\backend.vcxproj
D:\src\pi3diamond\timetagger\backend\Release\backend.lib
D:\src\pi3diamond\timetagger\backend\Release\backend.lib
D:\src\pi3diamond\timetagger\backend\Release\backend.exp
D:\src\pi3diamond\timetagger\backend\Release\backend.exp
