^D:\SRC\PI3DIAMOND\TIMETAGGER\BACKEND\COUNTBETWEENMARKERS.CPP
/c /ID:\software\boost_1_58_0 /I"C:\Users\diamond_AFM.FKFDOM\AppData\Local\Enthought\Canopy32\App\appdata\canopy-1.5.1.2730.win-x86\include" /I"C:\Users\diamond_AFM.FKFDOM\AppData\Local\Enthought\Canopy32\App\appdata\canopy-1.5.1.2730.win-x86\Lib\site-packages\numpy\core\include" /Zi /nologo /W3 /WX- /O2 /Oy- /GL /D WIN32 /D NDEBUG /D _CONSOLE /D _WINDLL /Gm- /EHsc /MD /GS /fp:precise /Zc:wchar_t /Zc:forScope /Fo"Release\\" /Fd"Release\vc100.pdb" /Gd /TP /analyze- /errorReport:prompt D:\SRC\PI3DIAMOND\TIMETAGGER\BACKEND\COUNTBETWEENMARKERS.CPP
^D:\SRC\PI3DIAMOND\TIMETAGGER\BACKEND\COUNTER.CPP
/c /ID:\software\boost_1_58_0 /I"C:\Users\diamond_AFM.FKFDOM\AppData\Local\Enthought\Canopy32\App\appdata\canopy-1.5.1.2730.win-x86\include" /I"C:\Users\diamond_AFM.FKFDOM\AppData\Local\Enthought\Canopy32\App\appdata\canopy-1.5.1.2730.win-x86\Lib\site-packages\numpy\core\include" /Zi /nologo /W3 /WX- /O2 /Oy- /GL /D WIN32 /D NDEBUG /D _CONSOLE /D _WINDLL /Gm- /EHsc /MD /GS /fp:precise /Zc:wchar_t /Zc:forScope /Fo"Release\\" /Fd"Release\vc100.pdb" /Gd /TP /analyze- /errorReport:prompt D:\SRC\PI3DIAMOND\TIMETAGGER\BACKEND\COUNTER.CPP
^D:\SRC\PI3DIAMOND\TIMETAGGER\BACKEND\HISTOGRAM.CPP
/c /ID:\software\boost_1_58_0 /I"C:\Users\diamond_AFM.FKFDOM\AppData\Local\Enthought\Canopy32\App\appdata\canopy-1.5.1.2730.win-x86\include" /I"C:\Users\diamond_AFM.FKFDOM\AppData\Local\Enthought\Canopy32\App\appdata\canopy-1.5.1.2730.win-x86\Lib\site-packages\numpy\core\include" /Zi /nologo /W3 /WX- /O2 /Oy- /GL /D WIN32 /D NDEBUG /D _CONSOLE /D _WINDLL /Gm- /EHsc /MD /GS /fp:precise /Zc:wchar_t /Zc:forScope /Fo"Release\\" /Fd"Release\vc100.pdb" /Gd /TP /analyze- /errorReport:prompt D:\SRC\PI3DIAMOND\TIMETAGGER\BACKEND\HISTOGRAM.CPP
^D:\SRC\PI3DIAMOND\TIMETAGGER\BACKEND\ITERATOR.CPP
/c /ID:\software\boost_1_58_0 /I"C:\Users\diamond_AFM.FKFDOM\AppData\Local\Enthought\Canopy32\App\appdata\canopy-1.5.1.2730.win-x86\include" /I"C:\Users\diamond_AFM.FKFDOM\AppData\Local\Enthought\Canopy32\App\appdata\canopy-1.5.1.2730.win-x86\Lib\site-packages\numpy\core\include" /Zi /nologo /W3 /WX- /O2 /Oy- /GL /D WIN32 /D NDEBUG /D _CONSOLE /D _WINDLL /Gm- /EHsc /MD /GS /fp:precise /Zc:wchar_t /Zc:forScope /Fo"Release\\" /Fd"Release\vc100.pdb" /Gd /TP /analyze- /errorReport:prompt D:\SRC\PI3DIAMOND\TIMETAGGER\BACKEND\ITERATOR.CPP
^D:\SRC\PI3DIAMOND\TIMETAGGER\BACKEND\OKFRONTPANELDLL.CPP
/c /ID:\software\boost_1_58_0 /I"C:\Users\diamond_AFM.FKFDOM\AppData\Local\Enthought\Canopy32\App\appdata\canopy-1.5.1.2730.win-x86\include" /I"C:\Users\diamond_AFM.FKFDOM\AppData\Local\Enthought\Canopy32\App\appdata\canopy-1.5.1.2730.win-x86\Lib\site-packages\numpy\core\include" /Zi /nologo /W3 /WX- /O2 /Oy- /GL /D WIN32 /D NDEBUG /D _CONSOLE /D _WINDLL /Gm- /EHsc /MD /GS /fp:precise /Zc:wchar_t /Zc:forScope /Fo"Release\\" /Fd"Release\vc100.pdb" /Gd /TP /analyze- /errorReport:prompt D:\SRC\PI3DIAMOND\TIMETAGGER\BACKEND\OKFRONTPANELDLL.CPP
^D:\SRC\PI3DIAMOND\TIMETAGGER\BACKEND\PULSED.CPP
/c /ID:\software\boost_1_58_0 /I"C:\Users\diamond_AFM.FKFDOM\AppData\Local\Enthought\Canopy32\App\appdata\canopy-1.5.1.2730.win-x86\include" /I"C:\Users\diamond_AFM.FKFDOM\AppData\Local\Enthought\Canopy32\App\appdata\canopy-1.5.1.2730.win-x86\Lib\site-packages\numpy\core\include" /Zi /nologo /W3 /WX- /O2 /Oy- /GL /D WIN32 /D NDEBUG /D _CONSOLE /D _WINDLL /Gm- /EHsc /MD /GS /fp:precise /Zc:wchar_t /Zc:forScope /Fo"Release\\" /Fd"Release\vc100.pdb" /Gd /TP /analyze- /errorReport:prompt D:\SRC\PI3DIAMOND\TIMETAGGER\BACKEND\PULSED.CPP
^D:\SRC\PI3DIAMOND\TIMETAGGER\BACKEND\PULSEDEXTTRIG.CPP
/c /ID:\software\boost_1_58_0 /I"C:\Users\diamond_AFM.FKFDOM\AppData\Local\Enthought\Canopy32\App\appdata\canopy-1.5.1.2730.win-x86\include" /I"C:\Users\diamond_AFM.FKFDOM\AppData\Local\Enthought\Canopy32\App\appdata\canopy-1.5.1.2730.win-x86\Lib\site-packages\numpy\core\include" /Zi /nologo /W3 /WX- /O2 /Oy- /GL /D WIN32 /D NDEBUG /D _CONSOLE /D _WINDLL /Gm- /EHsc /MD /GS /fp:precise /Zc:wchar_t /Zc:forScope /Fo"Release\\" /Fd"Release\vc100.pdb" /Gd /TP /analyze- /errorReport:prompt D:\SRC\PI3DIAMOND\TIMETAGGER\BACKEND\PULSEDEXTTRIG.CPP
^D:\SRC\PI3DIAMOND\TIMETAGGER\BACKEND\TIMETAGGER.CPP
/c /ID:\software\boost_1_58_0 /I"C:\Users\diamond_AFM.FKFDOM\AppData\Local\Enthought\Canopy32\App\appdata\canopy-1.5.1.2730.win-x86\include" /I"C:\Users\diamond_AFM.FKFDOM\AppData\Local\Enthought\Canopy32\App\appdata\canopy-1.5.1.2730.win-x86\Lib\site-packages\numpy\core\include" /Zi /nologo /W3 /WX- /O2 /Oy- /GL /D WIN32 /D NDEBUG /D _CONSOLE /D _WINDLL /Gm- /EHsc /MD /GS /fp:precise /Zc:wchar_t /Zc:forScope /Fo"Release\\" /Fd"Release\vc100.pdb" /Gd /TP /analyze- /errorReport:prompt D:\SRC\PI3DIAMOND\TIMETAGGER\BACKEND\TIMETAGGER.CPP
^D:\SRC\PI3DIAMOND\TIMETAGGER\BACKEND\PULSEDAFM.CPP
/c /ID:\software\boost_1_58_0 /I"C:\Users\diamond_AFM.FKFDOM\AppData\Local\Enthought\Canopy32\App\appdata\canopy-1.5.1.2730.win-x86\include" /I"C:\Users\diamond_AFM.FKFDOM\AppData\Local\Enthought\Canopy32\App\appdata\canopy-1.5.1.2730.win-x86\Lib\site-packages\numpy\core\include" /Zi /nologo /W3 /WX- /O2 /Oy- /GL /D WIN32 /D NDEBUG /D _CONSOLE /D _WINDLL /Gm- /EHsc /MD /GS /fp:precise /Zc:wchar_t /Zc:forScope /Fo"Release\\" /Fd"Release\vc100.pdb" /Gd /TP /analyze- /errorReport:prompt D:\SRC\PI3DIAMOND\TIMETAGGER\BACKEND\PULSEDAFM.CPP
